// Jest Snapshot v1, https://goo.gl/fbAQLP

exports[`should match the snapshot 1`] = `
<div>
  <header
    className="hero is-large is-primary is-bold indexHero"
    style={
      Object {
        "backgroundImage": "linear-gradient(to right, rgba(0,0,0,.5) 50%, rgba(0,0,0,.2)), url([object Object])",
      }
    }
  >
    <div
      className="hero-body"
    >
      <div
        className="container"
      >
        <h1
          className="title has-text-weight-normal"
        >
          Cultivate your research audience
        </h1>
        <PageMetadata
          image={
            Object {
              "alt": "More impact with your research — claim your academic homepage.",
              "url": Object {},
            }
          }
          url="https://Flockademic.com"
        />
        <div>
          <Connect(BareClaimButton)
            className="button is-large is-primary"
            loggedInLabel="Claim your academic homepage"
            title="Build your profile"
          >
            Sign in with ORCID
          </Connect(BareClaimButton)>
        </div>
      </div>
    </div>
  </header>
  <section
    className="hero is-medium"
  >
    <div
      className="hero-body"
    >
      <div
        className="container"
      >
        <div
          className="columns"
        >
          <div
            className="column is-half-widescreen"
          >
            <ActivityTicker
              title={
                <h2
                  className="title"
                >
                  Recently shared research
                </h2>
              }
            />
          </div>
          <div
            className="column is-offset-1-widescreen"
          >
            <div
              className="box"
            >
              <h2
                className="title"
              >
                Find a researcher
              </h2>
              <ProfileSearch />
            </div>
          </div>
        </div>
      </div>
    </div>
  </section>
  <section
    className="hero is-medium is-light"
  >
    <div
      className="hero-body"
    >
      <div
        className="container"
      >
        <div
          className="walkthrough"
        >
          <div
            className="walkthrough__description"
          >
            <div>
              <h2
                className="title"
              >
                Your academic homepage, ready to go
              </h2>
              <p
                className="content"
              >
                Your affliations, biography, website links… All imported automatically, waiting for you. Setting up an academic homepage has never been easier!
              </p>
              <p
                className="content"
              >
                <Connect(BareClaimButton)
                  className="button is-primary is-medium"
                  loggedInLabel="Claim your academic homepage"
                  title="Sign in with ORCID to populate your Flockademic profile"
                >
                  <span>
                    Sign in to claim your homepage
                  </span>
                </Connect(BareClaimButton)>
              </p>
            </div>
          </div>
          <div
            className="walkthrough__graphic is-hidden-mobile"
          >
            <img
              alt=""
              className="image"
              src={Object {}}
            />
          </div>
        </div>
      </div>
    </div>
  </section>
  <section
    className="hero is-medium"
  >
    <div
      className="hero-body"
    >
      <div
        className="container"
      >
        <div
          className="walkthrough is-reversed"
        >
          <div
            className="walkthrough__description"
          >
            <div>
              <h2
                className="title"
              >
                All your work in a single place
              </h2>
              <p
                className="content"
              >
                Let your publications support each other. Your Open Access publications are automatically added to your academic homepage on Flockademic. Publication not listed? It's just a few simple steps to add your preprints.
              </p>
              <p
                className="content"
              >
                <Connect(BareClaimButton)
                  className="button is-primary is-medium"
                  loggedInLabel="Import your publications"
                  title="Submit new manuscript"
                >
                  <span>
                    Sign in to import your publications
                  </span>
                </Connect(BareClaimButton)>
              </p>
            </div>
          </div>
          <div
            className="walkthrough__graphic"
          >
            <img
              alt=""
              className="image"
              src={Object {}}
            />
          </div>
        </div>
      </div>
    </div>
  </section>
  <section
    className="hero is-medium is-light"
  >
    <div
      className="hero-body"
    >
      <div
        className="container"
      >
        <div
          className="walkthrough"
        >
          <div
            className="walkthrough__description"
          >
            <div>
              <h2
                className="title"
              >
                Simply good research!
              </h2>
              <p
                className="content"
              >
                Open research is simply good research! Contribute to a world in which publicly funded research is also publicly available.
              </p>
              <p
                className="content"
              >
                Ah, and did you know that Flockademic is a non-profit?
              </p>
              <p
                className="content"
              >
                <Connect(BareClaimButton)
                  className="button is-primary is-medium"
                  title="Submit new manuscript"
                >
                  <span>
                    Open up your research now
                  </span>
                </Connect(BareClaimButton)>
              </p>
            </div>
          </div>
          <div
            className="walkthrough__graphic is-hidden-mobile"
          >
            <img
              alt=""
              className="image"
              src={Object {}}
            />
          </div>
        </div>
      </div>
    </div>
  </section>
  <section
    className="section"
  >
    <div
      className="container"
    >
      <h2
        className="title is-size-3"
      >
        Latest blog posts
      </h2>
      <ul>
        <li
          className="media"
        >
          <div
            className="media-content"
          >
            <div
              className="content"
            >
              <h3
                className="title is-size-5"
              >
                <OutboundLink
                  eventLabel="blog-article"
                  onClick={null}
                  target={null}
                  title="Launching Unpaywall integration: automatic import of your academic research."
                  to="https://medium.com/flockademic/flockademic-unpaywall-8de219e78ff0"
                >
                  Flockademic ♥ Unpaywall
                </OutboundLink>
              </h3>
              <p>
                Your academic research is now automatically imported into Flockademic, thanks to a new integration with Unpaywall.
              </p>
            </div>
          </div>
        </li>
        <li
          className="media"
        >
          <div
            className="media-content"
          >
            <div
              className="content"
            >
              <h3
                className="title is-size-5"
              >
                <OutboundLink
                  eventLabel="blog-article"
                  onClick={null}
                  target={null}
                  title="To fix scholarly publishing, decouple credentialing from publishing"
                  to="https://medium.com/flockademic/to-fix-scholarly-publishing-decouple-credentialing-from-publishing-29b211f49acc"
                >
                  To fix scholarly publishing, decouple credentialing from publishing
                </OutboundLink>
              </h3>
              <p>
                Why do researchers keep submitting their work to expensive and/or closed-access journals? And how can we change that?
              </p>
            </div>
          </div>
        </li>
        <li
          className="media"
        >
          <div
            className="media-content"
          >
            <div
              className="content"
            >
              <h3
                className="title is-size-5"
              >
                <OutboundLink
                  eventLabel="blog-article"
                  onClick={null}
                  target={null}
                  title="The holy grail of Open Access: sharing that benefits authors"
                  to="https://medium.com/flockademic/the-holy-grail-in-open-access-sharing-that-benefits-authors-b685ff2c6300"
                >
                  The holy grail of Open Access: sharing that benefits authors
                </OutboundLink>
              </h3>
              <p>
                As a researcher, you are often urged to make your work openly accessible. And sure, that’s a laudable goal, but… What’s in it for you?
              </p>
            </div>
          </div>
        </li>
        <li
          className="media"
        >
          <p
            className="media-content"
          >
            <small>
              <OutboundLink
                eventLabel="blog-archive"
                onClick={null}
                target={null}
                title="Back archive of Flockademic blog posts"
                to="https://medium.com/Flockademic"
              >
                View all posts
              </OutboundLink>
            </small>
          </p>
          <div
            className="media-right field is-grouped"
          >
            <div
              className="control"
            >
              <OutboundLink
                className="button"
                eventLabel="newsletter"
                onClick={null}
                target={null}
                title="Subscribe to the newsletter"
                to="https://tinyletter.com/Flockademic"
              >
                <span
                  className="icon"
                >
                  <img
                    alt="Subscribe to newsletter"
                    src={Object {}}
                  />
                </span>
              </OutboundLink>
            </div>
            <div
              className="control"
            >
              <OutboundLink
                className="button"
                eventLabel="blog-feed"
                onClick={null}
                rel="alternate"
                target={null}
                title="Subscribe to the feed"
                to="https://medium.com/feed/flockademic"
                type="application/rss+xml"
              >
                <span
                  className="icon"
                >
                  <img
                    alt="Subscribe to feed"
                    src={Object {}}
                  />
                </span>
              </OutboundLink>
            </div>
            <HelmetWrapper
              defer={true}
              encodeSpecialCharacters={true}
            >
              <link
                href="https://medium.com/feed/flockademic"
                rel="alternate"
                type="application/rss+xml"
              />
            </HelmetWrapper>
          </div>
        </li>
      </ul>
    </div>
  </section>
</div>
`;
